<svg version="1.1" id="Layer_1" xmlns="http://www.w3.org/2000/svg" xmlns:xlink="http://www.w3.org/1999/xlink" x="0px" y="0px"
	 width="100%" viewBox="0 0 1200 1200" enable-background="new 0 0 1200 1200" xml:space="preserve">
<path fill="#1216D1" opacity="1.000000" stroke="none" 
	d="
M633.000000,1201.000000 
	C422.000000,1201.000000 211.500000,1201.000000 1.000000,1201.000000 
	C1.000000,801.000000 1.000000,401.000000 1.000000,1.000000 
	C401.000000,1.000000 801.000000,1.000000 1201.000000,1.000000 
	C1201.000000,401.000000 1201.000000,801.000000 1201.000000,1201.000000 
	C1011.833313,1201.000000 822.666687,1201.000000 633.000000,1201.000000 
M176.124023,575.382385 
	C173.822052,633.595459 180.922531,690.427612 200.920990,745.397888 
	C223.990509,808.809692 259.972412,863.725037 308.959808,910.132874 
	C349.228119,948.280762 395.157349,977.587341 446.914825,997.457642 
	C514.800476,1023.519775 584.890930,1031.801514 657.065308,1022.300476 
	C723.144409,1013.601868 783.823059,990.595825 838.910034,953.233521 
	C895.572266,914.802734 940.707886,865.619629 973.631104,805.481995 
	C1019.805054,721.140442 1035.175049,631.240417 1020.759094,536.362671 
	C1008.250549,454.038239 974.123108,381.580505 918.973877,319.157715 
	C877.667664,272.403687 828.397156,236.475677 771.258057,211.340424 
	C717.091248,187.512619 660.296143,176.171631 601.278931,175.822617 
	C562.408386,175.592743 524.180420,181.005905 486.734863,191.357880 
	C430.777405,206.827515 380.200348,232.944122 334.864502,269.214661 
	C289.378235,305.605499 252.946396,349.548859 225.439499,400.852295 
	C196.356598,455.095154 180.157791,513.044006 176.124023,575.382385 
z"/>
<path fill="#020208" opacity="1.000000" stroke="none" 
	d="
M176.152039,574.909241 
	C180.157791,513.044006 196.356598,455.095154 225.439499,400.852295 
	C252.946396,349.548859 289.378235,305.605499 334.864502,269.214661 
	C380.200348,232.944122 430.777405,206.827515 486.734863,191.357880 
	C524.180420,181.005905 562.408386,175.592743 601.278931,175.822617 
	C660.296143,176.171631 717.091248,187.512619 771.258057,211.340424 
	C828.397156,236.475677 877.667664,272.403687 918.973877,319.157715 
	C974.123108,381.580505 1008.250549,454.038239 1020.759094,536.362671 
	C1035.175049,631.240417 1019.805054,721.140442 973.631104,805.481995 
	C940.707886,865.619629 895.572266,914.802734 838.910034,953.233521 
	C783.823059,990.595825 723.144409,1013.601868 657.065308,1022.300476 
	C584.890930,1031.801514 514.800476,1023.519775 446.914825,997.457642 
	C395.157349,977.587341 349.228119,948.280762 308.959808,910.132874 
	C259.972412,863.725037 223.990509,808.809692 200.920990,745.397888 
	C180.922531,690.427612 173.822052,633.595459 176.152039,574.909241 
M620.134033,1015.907715 
	C657.800049,1014.137451 694.595154,1007.507019 730.353271,995.551880 
	C808.044250,969.577087 873.174866,925.015381 924.202332,860.988159 
	C995.221680,771.876038 1025.440186,670.185669 1013.518494,556.639832 
	C1004.905151,474.603271 973.829468,401.571533 921.726868,337.741913 
	C886.234985,294.261566 843.543701,259.138641 793.623901,233.307770 
	C697.371887,183.502426 596.355286,172.073318 491.958710,200.508408 
	C382.386810,230.353134 298.725952,295.758911 241.186005,393.470917 
	C202.938522,458.421204 184.287964,529.044189 185.566818,604.816467 
	C186.828873,679.595093 205.864777,749.201355 244.158752,813.450378 
	C281.182648,875.568359 331.131012,924.825806 393.686188,960.920227 
	C463.390259,1001.139587 538.734253,1019.281189 620.134033,1015.907715 
z"/>
<path fill="#1216D0" opacity="1.000000" stroke="none" 
	d="
M619.662048,1015.940552 
	C538.734253,1019.281189 463.390259,1001.139587 393.686188,960.920227 
	C331.131012,924.825806 281.182648,875.568359 244.158752,813.450378 
	C205.864777,749.201355 186.828873,679.595093 185.566818,604.816467 
	C184.287964,529.044189 202.938522,458.421204 241.186005,393.470917 
	C298.725952,295.758911 382.386810,230.353134 491.958710,200.508408 
	C596.355286,172.073318 697.371887,183.502426 793.623901,233.307770 
	C843.543701,259.138641 886.234985,294.261566 921.726868,337.741913 
	C973.829468,401.571533 1004.905151,474.603271 1013.518494,556.639832 
	C1025.440186,670.185669 995.221680,771.876038 924.202332,860.988159 
	C873.174866,925.015381 808.044250,969.577087 730.353271,995.551880 
	C694.595154,1007.507019 657.800049,1014.137451 619.662048,1015.940552 
M503.794342,583.760010 
	C515.379700,585.488098 526.778687,584.666321 537.742065,580.510437 
	C566.927490,569.447144 583.923157,544.827942 583.986816,513.626038 
	C584.057190,479.132050 584.021118,444.637726 583.973572,410.143616 
	C583.969299,407.062408 583.888611,404.803253 588.249023,404.819641 
	C626.742004,404.964508 665.235840,404.948944 703.729004,404.832001 
	C707.503662,404.820526 708.081055,406.427582 708.046692,409.631317 
	C707.916138,421.794556 708.002075,433.960022 707.970886,446.124542 
	C707.968140,447.199219 707.702148,448.273224 707.519531,449.638306 
	C705.386169,449.121857 703.624207,448.710297 701.869812,448.268463 
	C652.435059,435.819275 607.118042,478.755493 617.129883,528.558838 
	C624.191589,563.686829 657.330566,587.714905 693.915405,584.233704 
	C729.173584,580.878784 756.942078,550.788025 757.106873,515.279602 
	C757.305664,472.454407 757.177368,429.627716 757.185059,386.801666 
	C757.190186,358.306488 757.114990,329.810974 757.252441,301.316467 
	C757.276428,296.351837 755.584229,292.756378 750.979309,291.120026 
	C748.546936,290.255707 745.754211,290.139038 743.123901,290.136993 
	C679.301331,290.087250 615.478821,290.097748 551.656250,290.102783 
	C549.657410,290.102936 547.639893,289.996216 545.663086,290.220764 
	C538.365295,291.049652 534.829285,295.070740 534.828979,302.384308 
	C534.827026,349.209717 534.828979,396.035156 534.829590,442.860565 
	C534.829651,444.658325 534.829651,446.456055 534.829651,448.360016 
	C484.513123,436.718811 451.618530,468.793945 445.927124,502.946747 
	C439.475861,541.659485 464.669037,577.082520 503.794342,583.760010 
M778.899414,775.715149 
	C779.120850,775.102661 779.525940,774.492798 779.535095,773.877197 
	C779.616272,768.384766 779.566895,762.890137 779.679932,757.398621 
	C779.759583,753.529785 781.816284,750.698120 785.661621,750.786987 
	C789.555664,750.877014 789.230835,754.443115 789.235107,757.289429 
	C789.244202,763.403198 789.237915,769.517029 789.237915,775.899170 
	C793.821960,775.899170 797.742981,775.899170 801.849670,775.899170 
	C801.849670,766.413452 802.355408,757.103882 801.683899,747.880005 
	C801.179382,740.950500 795.536682,737.497925 788.680481,739.255981 
	C785.101868,740.173584 781.808655,742.204285 778.299316,743.771118 
	C772.671387,737.436707 766.652283,737.142700 756.699402,742.927185 
	C754.299194,739.308411 750.450195,738.647034 744.018127,740.908569 
	C744.018127,751.603882 744.011353,762.409607 744.032288,773.215393 
	C744.033813,774.007629 744.235901,774.799561 744.369141,775.768921 
	C748.638000,775.768921 752.660767,775.768921 756.899048,775.768921 
	C756.899048,769.204285 756.737427,763.046265 756.960938,756.902283 
	C757.090942,753.329224 759.294495,750.710266 762.914062,750.801697 
	C766.457275,750.891113 766.516113,754.081299 766.517395,756.832947 
	C766.520325,763.124023 766.518311,769.415161 766.518311,776.054199 
	C770.772217,776.054199 774.409851,776.054199 778.899414,775.715149 
M399.100067,761.443970 
	C397.666107,760.638794 396.232178,759.833618 394.883667,759.076416 
	C387.900604,765.198181 381.843292,765.953552 377.082520,761.459778 
	C372.276215,756.922913 371.757568,747.939453 375.998688,742.685242 
	C380.405975,737.225098 386.338379,737.561462 395.447662,743.982910 
	C398.267456,741.930481 401.181976,739.809082 404.015961,737.746338 
	C400.471191,729.369934 390.244263,725.023926 379.727570,727.097961 
	C367.859650,729.438477 359.677155,739.130676 359.527374,751.025146 
	C359.385040,762.330872 368.348389,773.834595 378.930145,775.927002 
	C389.880768,778.092224 400.971375,773.467346 404.641846,764.806946 
	C403.040619,763.843445 401.371796,762.839233 399.100067,761.443970 
M463.568359,763.552246 
	C463.578949,761.555420 463.565796,759.558044 463.605133,757.561829 
	C463.682281,753.645203 465.741760,750.902039 469.541016,750.878784 
	C473.683105,750.853516 473.599640,754.487000 473.607971,757.547485 
	C473.624512,763.645203 473.612854,769.743042 473.612854,775.837402 
	C478.336670,775.837402 482.389618,775.837402 486.621674,775.837402 
	C486.621674,766.579468 486.975708,757.759583 486.512299,748.982849 
	C486.124908,741.645813 480.653259,737.667603 473.333801,739.024597 
	C469.674683,739.703003 466.195923,741.354248 462.599304,742.577759 
	C460.961792,739.228149 458.404877,738.702881 450.559692,740.431396 
	C450.559692,752.073486 450.559692,763.780884 450.559692,775.416931 
	C462.073120,778.338806 463.574524,777.221436 463.568329,766.016663 
	C463.568054,765.517456 463.568146,765.018188 463.568359,763.552246 
M843.391052,748.255554 
	C838.530090,740.637024 831.340027,738.085815 822.756287,739.231384 
	C815.044678,740.260559 809.453125,744.267029 807.195984,752.051147 
	C804.508850,761.318237 807.691040,769.872253 815.288025,774.057312 
	C823.722717,778.703796 835.593384,777.037537 841.477417,770.321106 
	C842.266357,769.420654 842.776123,768.275635 843.648682,766.866821 
	C838.593140,765.516785 834.698120,762.793335 829.667114,766.420044 
	C826.053772,769.024719 821.911804,766.633911 820.487976,761.880310 
	C826.430542,761.880310 832.208496,761.880005 837.986450,761.880432 
	C846.284729,761.881104 847.313171,760.468933 844.970886,752.192200 
	C844.655151,751.076599 844.163635,750.010864 843.391052,748.255554 
M550.626404,761.874878 
	C555.283386,761.879456 559.960266,761.618469 564.591614,761.965454 
	C568.961609,762.293030 570.026917,760.464050 569.742065,756.473389 
	C569.076111,747.142456 562.805786,740.541443 552.858459,739.095154 
	C543.603210,737.749512 534.737427,742.503296 531.666504,750.458191 
	C528.281738,759.225952 531.073059,768.984253 538.257996,773.500793 
	C546.130554,778.449768 558.692566,777.397400 564.682983,771.220093 
	C565.755066,770.114563 566.573608,768.763123 567.899353,767.009094 
	C562.707886,765.655029 558.909119,762.556702 553.841064,766.350220 
	C550.277161,769.017883 545.969604,766.676331 544.791504,762.176270 
	C546.473083,762.081299 548.069031,761.991150 550.626404,761.874878 
M695.908936,753.581421 
	C693.348206,744.488281 687.497742,739.662964 678.064514,738.863831 
	C667.696472,737.985413 658.858643,744.366943 657.091431,754.007935 
	C655.234497,764.137634 660.563232,773.657104 669.912415,775.835022 
	C686.872131,779.785828 698.155334,769.382690 695.908936,753.581421 
M445.196320,763.437073 
	C445.421295,761.630981 445.814270,759.827576 445.843689,758.018311 
	C446.015350,747.461487 439.174408,740.096252 428.200043,738.913879 
	C417.944580,737.809021 409.020721,743.923157 406.836426,753.551025 
	C404.616364,763.336487 409.889343,772.845459 419.119720,775.702026 
	C430.417236,779.198303 440.600739,774.672791 445.196320,763.437073 
M654.672913,746.062073 
	C652.328247,744.860535 649.983582,743.658997 647.227234,742.246582 
	C646.298218,736.595215 646.487061,736.417114 654.928345,736.128723 
	C655.249451,734.766602 655.405640,733.257629 655.959229,731.912109 
	C657.735352,727.595276 655.908752,726.127747 651.738403,725.313049 
	C641.501953,723.313171 634.868835,727.950989 633.726013,738.446228 
	C633.466309,740.831543 633.907776,742.918030 630.622070,744.356750 
	C629.469177,744.861633 629.371826,752.415833 630.872803,753.328186 
	C633.575684,754.970764 633.607422,756.553894 633.611816,758.819092 
	C633.622986,764.567261 633.615479,770.315430 633.615479,775.961792 
	C638.403809,775.961792 642.335999,775.961792 646.837646,775.961792 
	C646.837646,768.601562 646.837646,761.526855 646.837646,754.307800 
	C649.626282,754.014160 651.869080,753.778015 654.701904,753.479736 
	C654.701904,751.143799 654.701904,749.026245 654.672913,746.062073 
M524.017212,772.647400 
	C525.488647,770.989136 526.960083,769.330811 529.145325,766.868042 
	C522.910645,765.519958 518.449707,761.739624 512.546021,765.063965 
	C511.196625,765.823792 506.798737,764.242310 506.338776,762.881531 
	C505.323517,759.877808 505.167206,756.070251 506.179993,753.110657 
	C506.687836,751.626587 511.345581,749.869568 512.713379,750.665283 
	C518.700562,754.147949 523.097534,749.862793 528.329529,749.014526 
	C524.746155,741.860413 517.426636,738.071350 509.470947,738.895630 
	C500.323853,739.843262 493.795227,744.978760 491.861176,752.747437 
	C489.945587,760.442200 492.663086,768.730408 498.471039,772.906982 
	C505.284698,777.806824 515.726440,777.874084 524.017212,772.647400 
M624.836060,746.164734 
	C624.836060,744.228088 624.836060,742.291382 624.836060,740.297791 
	C622.128174,739.968506 620.065979,739.717773 618.560059,739.534668 
	C617.695374,735.545837 618.034424,730.659668 615.935486,729.139038 
	C613.570740,727.425964 609.009705,728.744690 605.017273,728.744690 
	C605.017273,732.522034 605.017273,735.809753 605.017273,737.923645 
	C602.979553,739.892334 600.819275,741.007507 600.693481,742.318054 
	C600.479980,744.542053 600.948425,748.388489 602.197754,748.889160 
	C605.310303,750.136475 604.990540,752.148804 605.001587,754.420837 
	C605.019470,758.079834 604.972290,761.739380 605.020630,765.397827 
	C605.133118,773.909546 609.776367,777.814941 618.209534,776.537659 
	C628.256592,775.015869 628.742188,774.151917 624.940735,764.560852 
	C617.958252,765.163757 617.727478,764.953552 617.693909,757.849060 
	C617.681580,755.239014 617.691895,752.628906 617.691895,751.341736 
	C620.792114,749.461243 622.799683,748.243591 624.836060,746.164734 
M723.601990,751.146851 
	C724.219055,748.080322 725.042419,745.036926 725.390747,741.940186 
	C725.692566,739.256531 723.955872,738.153687 721.594910,739.160339 
	C718.767700,740.365967 716.149597,742.062073 713.459473,743.535583 
	C711.963135,739.201355 709.418091,738.516479 700.561523,740.440552 
	C700.561523,751.269836 700.492371,762.208191 700.673035,773.142395 
	C700.690247,774.185913 702.182617,775.989441 703.135010,776.091675 
	C706.515137,776.454773 709.958069,776.233337 713.826782,776.233337 
	C713.826782,770.594360 713.833191,765.796692 713.825378,760.999023 
	C713.812256,753.017822 714.693420,752.059265 723.601990,751.146851 
M573.999390,769.377258 
	C573.999390,771.470276 573.999390,773.563232 573.999390,775.654846 
	C578.691223,775.654846 582.568542,775.654846 586.851929,775.654846 
	C586.851929,771.104797 586.854675,766.969727 586.851440,762.834656 
	C586.843018,752.179016 586.842407,752.182800 597.175537,750.817444 
	C597.445374,750.781677 597.674011,750.433960 597.858521,750.283447 
	C597.858521,746.506653 597.858521,742.798279 597.858521,737.617188 
	C593.316284,740.174377 589.715881,742.201355 586.124512,744.223267 
	C585.814941,742.985657 585.465698,741.589355 585.132935,740.258911 
	C581.404236,740.258911 577.989563,740.258911 574.005493,740.258911 
	C574.005493,749.851990 574.005493,759.127014 573.999390,769.377258 
M736.891296,770.464722 
	C736.891296,768.199829 736.891296,765.934875 736.891296,763.435669 
	C733.202209,763.435669 730.169373,763.435669 726.996704,763.435669 
	C726.996704,767.784973 726.996704,771.800842 726.996704,775.928711 
	C730.364807,775.928711 733.292969,775.928711 736.574158,775.928711 
	C736.688965,774.280273 736.789490,772.836304 736.891296,770.464722 
z"/>
<path fill="#010103" opacity="1.000000" stroke="none" 
	d="
M503.374725,583.659546 
	C464.669037,577.082520 439.475861,541.659485 445.927124,502.946747 
	C451.618530,468.793945 484.513123,436.718811 534.829651,448.360016 
	C534.829651,446.456055 534.829651,444.658325 534.829590,442.860565 
	C534.828979,396.035156 534.827026,349.209717 534.828979,302.384308 
	C534.829285,295.070740 538.365295,291.049652 545.663086,290.220764 
	C547.639893,289.996216 549.657410,290.102936 551.656250,290.102783 
	C615.478821,290.097748 679.301331,290.087250 743.123901,290.136993 
	C745.754211,290.139038 748.546936,290.255707 750.979309,291.120026 
	C755.584229,292.756378 757.276428,296.351837 757.252441,301.316467 
	C757.114990,329.810974 757.190186,358.306488 757.185059,386.801666 
	C757.177368,429.627716 757.305664,472.454407 757.106873,515.279602 
	C756.942078,550.788025 729.173584,580.878784 693.915405,584.233704 
	C657.330566,587.714905 624.191589,563.686829 617.129883,528.558838 
	C607.118042,478.755493 652.435059,435.819275 701.869812,448.268463 
	C703.624207,448.710297 705.386169,449.121857 707.519531,449.638306 
	C707.702148,448.273224 707.968140,447.199219 707.970886,446.124542 
	C708.002075,433.960022 707.916138,421.794556 708.046692,409.631317 
	C708.081055,406.427582 707.503662,404.820526 703.729004,404.832001 
	C665.235840,404.948944 626.742004,404.964508 588.249023,404.819641 
	C583.888611,404.803253 583.969299,407.062408 583.973572,410.143616 
	C584.021118,444.637726 584.057190,479.132050 583.986816,513.626038 
	C583.923157,544.827942 566.927490,569.447144 537.742065,580.510437 
	C526.778687,584.666321 515.379700,585.488098 503.374725,583.659546 
M551.315857,322.506226 
	C551.315857,361.670105 551.320312,400.833984 551.312073,439.997864 
	C551.310486,447.496765 551.417297,455.000671 551.178955,462.492889 
	C550.995361,468.262360 547.226929,470.283447 541.982361,467.966553 
	C537.275696,465.887299 532.615295,463.414795 527.667908,462.214294 
	C489.368103,452.920563 454.929199,485.499542 461.190125,524.900696 
	C464.544128,546.007935 480.998291,563.242310 502.827942,568.512756 
	C522.387146,573.235046 544.870789,564.456970 557.028503,547.598145 
	C564.988403,536.560364 567.595886,524.148315 567.568848,510.834686 
	C567.490723,472.337646 567.534363,433.840332 567.547546,395.343140 
	C567.549927,388.455597 568.217285,388.085815 574.926208,388.097595 
	C622.584656,388.181305 670.243286,388.182739 717.901794,388.134003 
	C723.824707,388.127960 724.450928,388.452423 724.461487,394.596954 
	C724.497742,415.762024 724.511108,436.927277 724.452637,458.092224 
	C724.423828,468.527954 719.360291,471.580597 710.055542,466.701904 
	C699.145569,460.981628 687.515869,459.024872 675.645142,461.586792 
	C653.589294,466.346893 638.604065,479.603760 633.039185,501.712036 
	C627.598755,523.325806 633.713196,542.148499 650.712891,556.541931 
	C668.089783,571.254700 688.102966,573.953796 708.628113,564.387329 
	C730.322388,554.275940 740.693115,536.192566 740.704285,512.276550 
	C740.735474,445.614746 740.723999,378.952911 740.715149,312.291107 
	C740.714905,310.671967 740.547668,309.052826 740.449402,307.272461 
	C677.314453,307.272461 614.594604,307.272461 551.315918,307.272461 
	C551.315918,312.250854 551.315918,316.880188 551.315857,322.506226 
z"/>
<path fill="#020206" opacity="1.000000" stroke="none" 
	d="
M778.473511,775.884644 
	C774.409851,776.054199 770.772217,776.054199 766.518311,776.054199 
	C766.518311,769.415161 766.520325,763.124023 766.517395,756.832947 
	C766.516113,754.081299 766.457275,750.891113 762.914062,750.801697 
	C759.294495,750.710266 757.090942,753.329224 756.960938,756.902283 
	C756.737427,763.046265 756.899048,769.204285 756.899048,775.768921 
	C752.660767,775.768921 748.638000,775.768921 744.369141,775.768921 
	C744.235901,774.799561 744.033813,774.007629 744.032288,773.215393 
	C744.011353,762.409607 744.018127,751.603882 744.018127,740.908569 
	C750.450195,738.647034 754.299194,739.308411 756.699402,742.927185 
	C766.652283,737.142700 772.671387,737.436707 778.299316,743.771118 
	C781.808655,742.204285 785.101868,740.173584 788.680481,739.255981 
	C795.536682,737.497925 801.179382,740.950500 801.683899,747.880005 
	C802.355408,757.103882 801.849670,766.413452 801.849670,775.899170 
	C797.742981,775.899170 793.821960,775.899170 789.237915,775.899170 
	C789.237915,769.517029 789.244202,763.403198 789.235107,757.289429 
	C789.230835,754.443115 789.555664,750.877014 785.661621,750.786987 
	C781.816284,750.698120 779.759583,753.529785 779.679932,757.398621 
	C779.566895,762.890137 779.616272,768.384766 779.535095,773.877197 
	C779.525940,774.492798 779.120850,775.102661 778.473511,775.884644 
z"/>
<path fill="#020207" opacity="1.000000" stroke="none" 
	d="
M399.401520,761.639526 
	C401.371796,762.839233 403.040619,763.843445 404.641846,764.806946 
	C400.971375,773.467346 389.880768,778.092224 378.930145,775.927002 
	C368.348389,773.834595 359.385040,762.330872 359.527374,751.025146 
	C359.677155,739.130676 367.859650,729.438477 379.727570,727.097961 
	C390.244263,725.023926 400.471191,729.369934 404.015961,737.746338 
	C401.181976,739.809082 398.267456,741.930481 395.447662,743.982910 
	C386.338379,737.561462 380.405975,737.225098 375.998688,742.685242 
	C371.757568,747.939453 372.276215,756.922913 377.082520,761.459778 
	C381.843292,765.953552 387.900604,765.198181 394.883667,759.076416 
	C396.232178,759.833618 397.666107,760.638794 399.401520,761.639526 
z"/>
<path fill="#030209" opacity="1.000000" stroke="none" 
	d="
M463.568237,764.035645 
	C463.568146,765.018188 463.568054,765.517456 463.568329,766.016663 
	C463.574524,777.221436 462.073120,778.338806 450.559692,775.416931 
	C450.559692,763.780884 450.559692,752.073486 450.559692,740.431396 
	C458.404877,738.702881 460.961792,739.228149 462.599304,742.577759 
	C466.195923,741.354248 469.674683,739.703003 473.333801,739.024597 
	C480.653259,737.667603 486.124908,741.645813 486.512299,748.982849 
	C486.975708,757.759583 486.621674,766.579468 486.621674,775.837402 
	C482.389618,775.837402 478.336670,775.837402 473.612854,775.837402 
	C473.612854,769.743042 473.624512,763.645203 473.607971,757.547485 
	C473.599640,754.487000 473.683105,750.853516 469.541016,750.878784 
	C465.741760,750.902039 463.682281,753.645203 463.605133,757.561829 
	C463.565796,759.558044 463.578949,761.555420 463.568237,764.035645 
z"/>
<path fill="#020207" opacity="1.000000" stroke="none" 
	d="
M843.572327,748.588745 
	C844.163635,750.010864 844.655151,751.076599 844.970886,752.192200 
	C847.313171,760.468933 846.284729,761.881104 837.986450,761.880432 
	C832.208496,761.880005 826.430542,761.880310 820.487976,761.880310 
	C821.911804,766.633911 826.053772,769.024719 829.667114,766.420044 
	C834.698120,762.793335 838.593140,765.516785 843.648682,766.866821 
	C842.776123,768.275635 842.266357,769.420654 841.477417,770.321106 
	C835.593384,777.037537 823.722717,778.703796 815.288025,774.057312 
	C807.691040,769.872253 804.508850,761.318237 807.195984,752.051147 
	C809.453125,744.267029 815.044678,740.260559 822.756287,739.231384 
	C831.340027,738.085815 838.530090,740.637024 843.572327,748.588745 
M829.600769,753.896423 
	C829.891113,752.732422 830.595337,750.631348 830.408020,750.548645 
	C828.412781,749.667236 826.146362,748.352112 824.217407,748.684082 
	C822.529053,748.974670 821.176331,751.215210 819.675354,752.594299 
	C819.943909,753.031982 820.212524,753.469604 820.481140,753.907288 
	C823.252014,753.907288 826.022888,753.907288 829.600769,753.896423 
z"/>
<path fill="#020208" opacity="1.000000" stroke="none" 
	d="
M550.145630,761.887939 
	C548.069031,761.991150 546.473083,762.081299 544.791504,762.176270 
	C545.969604,766.676331 550.277161,769.017883 553.841064,766.350220 
	C558.909119,762.556702 562.707886,765.655029 567.899353,767.009094 
	C566.573608,768.763123 565.755066,770.114563 564.682983,771.220093 
	C558.692566,777.397400 546.130554,778.449768 538.257996,773.500793 
	C531.073059,768.984253 528.281738,759.225952 531.666504,750.458191 
	C534.737427,742.503296 543.603210,737.749512 552.858459,739.095154 
	C562.805786,740.541443 569.076111,747.142456 569.742065,756.473389 
	C570.026917,760.464050 568.961609,762.293030 564.591614,761.965454 
	C559.960266,761.618469 555.283386,761.879456 550.145630,761.887939 
M548.822693,748.263977 
	C547.099854,749.625305 545.377014,750.986572 543.654175,752.347900 
	C543.917480,752.733643 544.180847,753.119385 544.444153,753.505127 
	C548.075317,753.505127 551.706482,753.505127 555.337708,753.505127 
	C555.587280,752.945190 555.836914,752.385193 556.086487,751.825256 
	C553.914124,750.617310 551.741699,749.409424 548.822693,748.263977 
z"/>
<path fill="#020207" opacity="1.000000" stroke="none" 
	d="
M695.980957,753.972778 
	C698.155334,769.382690 686.872131,779.785828 669.912415,775.835022 
	C660.563232,773.657104 655.234497,764.137634 657.091431,754.007935 
	C658.858643,744.366943 667.696472,737.985413 678.064514,738.863831 
	C687.497742,739.662964 693.348206,744.488281 695.980957,753.972778 
M670.031982,758.346497 
	C670.425110,762.433716 672.342346,765.915649 676.625244,765.411316 
	C678.851746,765.149170 681.575745,762.291016 682.575928,759.961853 
	C684.267090,756.024048 681.501709,751.148926 678.022949,750.285767 
	C674.055481,749.301208 671.115967,751.972595 670.031982,758.346497 
z"/>
<path fill="#020207" opacity="1.000000" stroke="none" 
	d="
M445.083374,763.825562 
	C440.600739,774.672791 430.417236,779.198303 419.119720,775.702026 
	C409.889343,772.845459 404.616364,763.336487 406.836426,753.551025 
	C409.020721,743.923157 417.944580,737.809021 428.200043,738.913879 
	C439.174408,740.096252 446.015350,747.461487 445.843689,758.018311 
	C445.814270,759.827576 445.421295,761.630981 445.083374,763.825562 
M423.529083,764.907959 
	C427.051483,766.604004 430.480164,765.446472 431.370819,762.236816 
	C432.230743,759.137756 431.599548,755.177734 430.313507,752.152954 
	C429.806335,750.960083 425.402771,750.342407 423.392090,751.101440 
	C419.532562,752.558350 419.199188,756.437256 420.077057,760.026428 
	C420.478882,761.669250 421.890045,763.065308 423.529083,764.907959 
z"/>
<path fill="#020208" opacity="1.000000" stroke="none" 
	d="
M654.687378,746.485352 
	C654.701904,749.026245 654.701904,751.143799 654.701904,753.479736 
	C651.869080,753.778015 649.626282,754.014160 646.837646,754.307800 
	C646.837646,761.526855 646.837646,768.601562 646.837646,775.961792 
	C642.335999,775.961792 638.403809,775.961792 633.615479,775.961792 
	C633.615479,770.315430 633.622986,764.567261 633.611816,758.819092 
	C633.607422,756.553894 633.575684,754.970764 630.872803,753.328186 
	C629.371826,752.415833 629.469177,744.861633 630.622070,744.356750 
	C633.907776,742.918030 633.466309,740.831543 633.726013,738.446228 
	C634.868835,727.950989 641.501953,723.313171 651.738403,725.313049 
	C655.908752,726.127747 657.735352,727.595276 655.959229,731.912109 
	C655.405640,733.257629 655.249451,734.766602 654.928345,736.128723 
	C646.487061,736.417114 646.298218,736.595215 647.227234,742.246582 
	C649.983582,743.658997 652.328247,744.860535 654.687378,746.485352 
z"/>
<path fill="#020208" opacity="1.000000" stroke="none" 
	d="
M523.729004,772.857666 
	C515.726440,777.874084 505.284698,777.806824 498.471039,772.906982 
	C492.663086,768.730408 489.945587,760.442200 491.861176,752.747437 
	C493.795227,744.978760 500.323853,739.843262 509.470947,738.895630 
	C517.426636,738.071350 524.746155,741.860413 528.329529,749.014526 
	C523.097534,749.862793 518.700562,754.147949 512.713379,750.665283 
	C511.345581,749.869568 506.687836,751.626587 506.179993,753.110657 
	C505.167206,756.070251 505.323517,759.877808 506.338776,762.881531 
	C506.798737,764.242310 511.196625,765.823792 512.546021,765.063965 
	C518.449707,761.739624 522.910645,765.519958 529.145325,766.868042 
	C526.960083,769.330811 525.488647,770.989136 523.729004,772.857666 
z"/>
<path fill="#020207" opacity="1.000000" stroke="none" 
	d="
M624.821655,746.595337 
	C622.799683,748.243591 620.792114,749.461243 617.691895,751.341736 
	C617.691895,752.628906 617.681580,755.239014 617.693909,757.849060 
	C617.727478,764.953552 617.958252,765.163757 624.940735,764.560852 
	C628.742188,774.151917 628.256592,775.015869 618.209534,776.537659 
	C609.776367,777.814941 605.133118,773.909546 605.020630,765.397827 
	C604.972290,761.739380 605.019470,758.079834 605.001587,754.420837 
	C604.990540,752.148804 605.310303,750.136475 602.197754,748.889160 
	C600.948425,748.388489 600.479980,744.542053 600.693481,742.318054 
	C600.819275,741.007507 602.979553,739.892334 605.017273,737.923645 
	C605.017273,735.809753 605.017273,732.522034 605.017273,728.744690 
	C609.009705,728.744690 613.570740,727.425964 615.935486,729.139038 
	C618.034424,730.659668 617.695374,735.545837 618.560059,739.534668 
	C620.065979,739.717773 622.128174,739.968506 624.836060,740.297791 
	C624.836060,742.291382 624.836060,744.228088 624.821655,746.595337 
z"/>
<path fill="#020206" opacity="1.000000" stroke="none" 
	d="
M723.206177,751.208252 
	C714.693420,752.059265 713.812256,753.017822 713.825378,760.999023 
	C713.833191,765.796692 713.826782,770.594360 713.826782,776.233337 
	C709.958069,776.233337 706.515137,776.454773 703.135010,776.091675 
	C702.182617,775.989441 700.690247,774.185913 700.673035,773.142395 
	C700.492371,762.208191 700.561523,751.269836 700.561523,740.440552 
	C709.418091,738.516479 711.963135,739.201355 713.459473,743.535583 
	C716.149597,742.062073 718.767700,740.365967 721.594910,739.160339 
	C723.955872,738.153687 725.692566,739.256531 725.390747,741.940186 
	C725.042419,745.036926 724.219055,748.080322 723.206177,751.208252 
z"/>
<path fill="#020206" opacity="1.000000" stroke="none" 
	d="
M574.002441,768.889648 
	C574.005493,759.127014 574.005493,749.851990 574.005493,740.258911 
	C577.989563,740.258911 581.404236,740.258911 585.132935,740.258911 
	C585.465698,741.589355 585.814941,742.985657 586.124512,744.223267 
	C589.715881,742.201355 593.316284,740.174377 597.858521,737.617188 
	C597.858521,742.798279 597.858521,746.506653 597.858521,750.283447 
	C597.674011,750.433960 597.445374,750.781677 597.175537,750.817444 
	C586.842407,752.182800 586.843018,752.179016 586.851440,762.834656 
	C586.854675,766.969727 586.851929,771.104797 586.851929,775.654846 
	C582.568542,775.654846 578.691223,775.654846 573.999390,775.654846 
	C573.999390,773.563232 573.999390,771.470276 574.002441,768.889648 
z"/>
<path fill="#030209" opacity="1.000000" stroke="none" 
	d="
M736.890686,770.928528 
	C736.789490,772.836304 736.688965,774.280273 736.574158,775.928711 
	C733.292969,775.928711 730.364807,775.928711 726.996704,775.928711 
	C726.996704,771.800842 726.996704,767.784973 726.996704,763.435669 
	C730.169373,763.435669 733.202209,763.435669 736.891296,763.435669 
	C736.891296,765.934875 736.891296,768.199829 736.890686,770.928528 
z"/>
<path fill="#1216CD" opacity="1.000000" stroke="none" 
	d="
M551.315918,322.007874 
	C551.315918,316.880188 551.315918,312.250854 551.315918,307.272461 
	C614.594604,307.272461 677.314453,307.272461 740.449402,307.272461 
	C740.547668,309.052826 740.714905,310.671967 740.715149,312.291107 
	C740.723999,378.952911 740.735474,445.614746 740.704285,512.276550 
	C740.693115,536.192566 730.322388,554.275940 708.628113,564.387329 
	C688.102966,573.953796 668.089783,571.254700 650.712891,556.541931 
	C633.713196,542.148499 627.598755,523.325806 633.039185,501.712036 
	C638.604065,479.603760 653.589294,466.346893 675.645142,461.586792 
	C687.515869,459.024872 699.145569,460.981628 710.055542,466.701904 
	C719.360291,471.580597 724.423828,468.527954 724.452637,458.092224 
	C724.511108,436.927277 724.497742,415.762024 724.461487,394.596954 
	C724.450928,388.452423 723.824707,388.127960 717.901794,388.134003 
	C670.243286,388.182739 622.584656,388.181305 574.926208,388.097595 
	C568.217285,388.085815 567.549927,388.455597 567.547546,395.343140 
	C567.534363,433.840332 567.490723,472.337646 567.568848,510.834686 
	C567.595886,524.148315 564.988403,536.560364 557.028503,547.598145 
	C544.870789,564.456970 522.387146,573.235046 502.827942,568.512756 
	C480.998291,563.242310 464.544128,546.007935 461.190125,524.900696 
	C454.929199,485.499542 489.368103,452.920563 527.667908,462.214294 
	C532.615295,463.414795 537.275696,465.887299 541.982361,467.966553 
	C547.226929,470.283447 550.995361,468.262360 551.178955,462.492889 
	C551.417297,455.000671 551.310486,447.496765 551.312073,439.997864 
	C551.320312,400.833984 551.315857,361.670105 551.315918,322.007874 
M710.430786,322.665283 
	C666.800476,322.664795 623.170105,322.664154 579.539795,322.663910 
	C569.359009,322.663849 567.436646,324.588409 567.394958,334.938965 
	C567.359375,343.764801 567.340881,352.590912 567.370789,361.416748 
	C567.400452,370.174591 569.584290,372.327026 578.337708,372.327545 
	C623.300232,372.330231 668.262756,372.329468 713.225281,372.312927 
	C714.883667,372.312317 716.565613,372.279419 718.195679,372.011932 
	C722.195129,371.355652 724.492676,368.867523 724.535767,364.856995 
	C724.659363,353.368103 724.647278,341.876587 724.553711,330.387207 
	C724.521179,326.389832 722.328369,323.799042 718.351685,323.120422 
	C716.075562,322.732025 713.721191,322.801605 710.430786,322.665283 
z"/>
<path fill="#1314B7" opacity="1.000000" stroke="none" 
	d="
M829.197266,753.901855 
	C826.022888,753.907288 823.252014,753.907288 820.481140,753.907288 
	C820.212524,753.469604 819.943909,753.031982 819.675354,752.594299 
	C821.176331,751.215210 822.529053,748.974670 824.217407,748.684082 
	C826.146362,748.352112 828.412781,749.667236 830.408020,750.548645 
	C830.595337,750.631348 829.891113,752.732422 829.197266,753.901855 
z"/>
<path fill="#1314B7" opacity="1.000000" stroke="none" 
	d="
M549.196045,748.232727 
	C551.741699,749.409424 553.914124,750.617310 556.086487,751.825256 
	C555.836914,752.385193 555.587280,752.945190 555.337708,753.505127 
	C551.706482,753.505127 548.075317,753.505127 544.444153,753.505127 
	C544.180847,753.119385 543.917480,752.733643 543.654175,752.347900 
	C545.377014,750.986572 547.099854,749.625305 549.196045,748.232727 
z"/>
<path fill="#1315C5" opacity="1.000000" stroke="none" 
	d="
M670.029663,757.949341 
	C671.115967,751.972595 674.055481,749.301208 678.022949,750.285767 
	C681.501709,751.148926 684.267090,756.024048 682.575928,759.961853 
	C681.575745,762.291016 678.851746,765.149170 676.625244,765.411316 
	C672.342346,765.915649 670.425110,762.433716 670.029663,757.949341 
z"/>
<path fill="#1315C2" opacity="1.000000" stroke="none" 
	d="
M423.186279,764.740601 
	C421.890045,763.065308 420.478882,761.669250 420.077057,760.026428 
	C419.199188,756.437256 419.532562,752.558350 423.392090,751.101440 
	C425.402771,750.342407 429.806335,750.960083 430.313507,752.152954 
	C431.599548,755.177734 432.230743,759.137756 431.370819,762.236816 
	C430.480164,765.446472 427.051483,766.604004 423.186279,764.740601 
z"/>
<path fill="#020105" opacity="1.000000" stroke="none" 
	d="
M710.916443,322.665131 
	C713.721191,322.801605 716.075562,322.732025 718.351685,323.120422 
	C722.328369,323.799042 724.521179,326.389832 724.553711,330.387207 
	C724.647278,341.876587 724.659363,353.368103 724.535767,364.856995 
	C724.492676,368.867523 722.195129,371.355652 718.195679,372.011932 
	C716.565613,372.279419 714.883667,372.312317 713.225281,372.312927 
	C668.262756,372.329468 623.300232,372.330231 578.337708,372.327545 
	C569.584290,372.327026 567.400452,370.174591 567.370789,361.416748 
	C567.340881,352.590912 567.359375,343.764801 567.394958,334.938965 
	C567.436646,324.588409 569.359009,322.663849 579.539795,322.663910 
	C623.170105,322.664154 666.800476,322.664795 710.916443,322.665131 
M694.492188,355.405029 
	C698.891174,355.405029 703.290100,355.405029 707.987366,355.405029 
	C707.987366,351.642059 707.718445,348.800354 708.045471,346.029022 
	C708.656372,340.851990 706.484192,339.630005 701.520813,339.657654 
	C665.394348,339.858704 629.266235,339.765503 593.138672,339.765717 
	C584.134949,339.765778 584.134888,339.766388 584.010071,348.705994 
	C583.919189,355.208466 584.085327,355.399048 590.606567,355.400604 
	C624.902771,355.408722 659.199036,355.404846 694.492188,355.405029 
z"/>
<path fill="#1216D0" opacity="1.000000" stroke="none" 
	d="
M693.993713,355.405060 
	C659.199036,355.404846 624.902771,355.408722 590.606567,355.400604 
	C584.085327,355.399048 583.919189,355.208466 584.010071,348.705994 
	C584.134888,339.766388 584.134949,339.765778 593.138672,339.765717 
	C629.266235,339.765503 665.394348,339.858704 701.520813,339.657654 
	C706.484192,339.630005 708.656372,340.851990 708.045471,346.029022 
	C707.718445,348.800354 707.987366,351.642059 707.987366,355.405029 
	C703.290100,355.405029 698.891174,355.405029 693.993713,355.405060 
z"/>
</svg>